{
    "empty": false,
    "first": true,
    "last": false,
    "number": 0,
    "numberOfElements": 5,
    "totalElements": 20,
    "totalPages": 3,
    "content": [
        {
            "trackingId": "SAP6",
            "status": "ACTIVO",
            "estimatedDate": "01/12/2021",
            "destiny": "tienda destino honda",
            "customer": "Luis Gabriel",
            "orderId": "00006"
        },
        {
            "trackingId": "SAP7",
            "status": "ACTIVO",
            "estimatedDate": "01/12/2021",
            "destiny": "tienda destino honda",
            "customer": "Geerson",
            "orderId": "00007"
        },
        {
            "trackingId": "SAP8",
            "status": "ACTIVO",
            "estimatedDate": "01/12/2021",
            "destiny": "tienda destino honda",
            "customer": "Pepe",
            "orderId": "00008"
        },
        {
            "trackingId": "SAP9",
            "status": "ACTIVO",
            "estimatedDate": "01/12/2021",
            "destiny": "tienda destino honda",
            "customer": "Pedro",
            "orderId": "00009"
        },
        {
            "trackingId": "SAP10",
            "status": "ACTIVO",
            "estimatedDate": "01/12/2021",
            "destiny": "tienda destino honda",
            "customer": "Carlos",
            "orderId": "00010"
        }
    ]
}