{
    "empty": false,
    "first": true,
    "last": false,
    "number": 0,
    "numberOfElements": 5,
    "totalElements": 20,
    "totalPages": 3,
    "content": [
       {
          "trackingId": "SAP16",
          "status": "ACTIVO",
          "estimatedDate": "01/12/2021",
          "destiny": "tienda destino honda",
          "customer": "Luis Gabriel",
          "orderId": "00016"
       },
       {
          "trackingId": "SAP17",
          "status": "ACTIVO",
          "estimatedDate": "01/12/2021",
          "destiny": "tienda destino honda",
          "customer": "Geerson",
          "orderId": "00017"
       },
       {
          "trackingId": "SAP18",
          "status": "ACTIVO",
          "estimatedDate": "01/12/2021",
          "destiny": "tienda destino honda",
          "customer": "Pepe",
          "orderId": "00018"
       },
       {
          "trackingId": "SAP19",
          "status": "ACTIVO",
          "estimatedDate": "01/12/2021",
          "destiny": "tienda destino honda",
          "customer": "Pedro",
          "orderId": "00019"
       },
       {
          "trackingId": "SAP20",
          "status": "ACTIVO",
          "estimatedDate": "01/12/2021",
          "destiny": "tienda destino honda",
          "customer": "Carlos",
          "orderId": "00020"
       }
    ]
 }